{"failedCount":1,"prefixedPath":"classpath:api\/features\/reqres.feature","packageQualifiedName":"api.features.reqres","loopIndex":-1,"relativePath":"api\/features\/reqres.feature","scenarioResults":[{"sectionIndex":0,"stepResults":[{"result":{"nanos":29492700,"startTime":1732629555646,"endTime":1732629555675,"millis":29.4927,"status":"passed"},"step":{"background":true,"line":4,"prefix":"*","index":0,"text":"def response_body = read(\"classpath:api\/datas\/response.json\")"}},{"result":{"nanos":211800,"startTime":1732629555679,"endTime":1732629555679,"millis":0.2118,"status":"passed"},"step":{"background":true,"line":5,"prefix":"*","index":1,"text":"configure driver = {type: \"chromedriver\", execute: \"chromedriver.exe\"}"}},{"result":{"nanos":637500,"startTime":1732629555679,"endTime":1732629555680,"millis":0.6375,"status":"passed"},"step":{"background":true,"line":6,"prefix":"*","index":2,"text":"url \"https:\/\/reqres.in\""}},{"result":{"nanos":499000,"startTime":1732629555679,"endTime":1732629555679,"millis":0.499,"status":"passed"},"step":{"line":10,"prefix":"*","index":0,"text":"header Content-Type = \"application\/json\""}},{"result":{"nanos":484800,"startTime":1732629555679,"endTime":1732629555679,"millis":0.4848,"status":"passed"},"step":{"line":11,"prefix":"*","index":1,"text":"path \"\/api\/users?page=1\""}},{"result":{"nanos":413537000,"startTime":1732629555679,"endTime":1732629556093,"millis":413.537,"status":"passed"},"step":{"line":12,"prefix":"*","index":2,"text":"method get"},"stepLog":"20:59:15.791 request:\n1 > GET https:\/\/reqres.in\/api\/users%3Fpage=1\n1 > Content-Type: application\/json\n1 > Host: reqres.in\n1 > Connection: Keep-Alive\n1 > User-Agent: Apache-HttpClient\/4.5.14 (Java\/17.0.12)\n1 > Accept-Encoding: gzip,deflate\n\n\n20:59:16.092 response time in milliseconds: 285\n1 < 200\n1 < Date: Tue, 26 Nov 2024 13:59:15 GMT\n1 < Content-Type: application\/json; charset=utf-8\n1 < Transfer-Encoding: chunked\n1 < Connection: keep-alive\n1 < Report-To: {\"group\":\"heroku-nel\",\"max_age\":3600,\"endpoints\":[{\"url\":\"https:\/\/nel.heroku.com\/reports?ts=1732628192&sid=c4c9725f-1ab0-44d8-820f-430df2718e11&s=nWm1sSPzUtiNYY7nuinuMh%2FaxcJup3B6DGqIiXzogQk%3D\"}]}\n1 < Reporting-Endpoints: heroku-nel=https:\/\/nel.heroku.com\/reports?ts=1732628192&sid=c4c9725f-1ab0-44d8-820f-430df2718e11&s=nWm1sSPzUtiNYY7nuinuMh%2FaxcJup3B6DGqIiXzogQk%3D\n1 < Nel: {\"report_to\":\"heroku-nel\",\"max_age\":3600,\"success_fraction\":0.005,\"failure_fraction\":0.05,\"response_headers\":[\"Via\"]}\n1 < X-Powered-By: Express\n1 < Access-Control-Allow-Origin: *\n1 < Etag: W\/\"2fb-zJ\/iiAzm4zf7SruyfEtNo0xEDoY\"\n1 < Via: 1.1 vegur\n1 < Cache-Control: max-age=14400\n1 < CF-Cache-Status: HIT\n1 < Age: 1363\n1 < Vary: Accept-Encoding\n1 < Server: cloudflare\n1 < CF-RAY: 8e8a65e03a7604ff-HKG\n1 < server-timing: cfL4;desc=\"?proto=TCP&rtt=31309&sent=7&recv=7&lost=0&retrans=0&sent_bytes=3111&recv_bytes=797&delivery_rate=92719&cwnd=229&unsent_bytes=0&cid=f2e5a5f7624287b4&ts=140&x=0\"\n{\"page\":1,\"per_page\":6,\"total\":12,\"total_pages\":2,\"data\":[{\"id\":1,\"name\":\"cerulean\",\"year\":2000,\"color\":\"#98B2D1\",\"pantone_value\":\"15-4020\"},{\"id\":2,\"name\":\"fuchsia rose\",\"year\":2001,\"color\":\"#C74375\",\"pantone_value\":\"17-2031\"},{\"id\":3,\"name\":\"true red\",\"year\":2002,\"color\":\"#BF1932\",\"pantone_value\":\"19-1664\"},{\"id\":4,\"name\":\"aqua sky\",\"year\":2003,\"color\":\"#7BC4C4\",\"pantone_value\":\"14-4811\"},{\"id\":5,\"name\":\"tigerlily\",\"year\":2004,\"color\":\"#E2583E\",\"pantone_value\":\"17-1456\"},{\"id\":6,\"name\":\"blue turquoise\",\"year\":2005,\"color\":\"#53B0AE\",\"pantone_value\":\"15-5217\"}],\"support\":{\"url\":\"https:\/\/contentcaddy.io?utm_source=reqres&utm_medium=json&utm_campaign=referral\",\"text\":\"Tired of writing endless social media content? Let Content Caddy generate it for you.\"}}\n\n"},{"result":{"nanos":13500,"startTime":1732629556092,"endTime":1732629556092,"millis":0.0135,"status":"passed"},"step":{"line":13,"prefix":"*","index":3,"text":"status 200"}},{"result":{"nanos":12094900,"startTime":1732629556092,"endTime":1732629556104,"millis":12.0949,"status":"passed"},"step":{"line":14,"prefix":"*","index":4,"text":"match response == response_body.responePage1"}}],"line":18,"description":"","durationMillis":456.9712,"failed":false,"tags":["TC_01"],"executorName":"main","name":"","startTime":1732629555598,"refId":"[1.1:18]","endTime":1732629556108,"exampleData":{"pageNumber":"1"},"exampleIndex":0},{"sectionIndex":0,"stepResults":[{"result":{"nanos":1810300,"startTime":1732629556124,"endTime":1732629556126,"millis":1.8103,"status":"passed"},"step":{"background":true,"line":4,"prefix":"*","index":0,"text":"def response_body = read(\"classpath:api\/datas\/response.json\")"}},{"result":{"nanos":127300,"startTime":1732629556124,"endTime":1732629556124,"millis":0.1273,"status":"passed"},"step":{"background":true,"line":5,"prefix":"*","index":1,"text":"configure driver = {type: \"chromedriver\", execute: \"chromedriver.exe\"}"}},{"result":{"nanos":189300,"startTime":1732629556124,"endTime":1732629556124,"millis":0.1893,"status":"passed"},"step":{"background":true,"line":6,"prefix":"*","index":2,"text":"url \"https:\/\/reqres.in\""}},{"result":{"nanos":339600,"startTime":1732629556124,"endTime":1732629556124,"millis":0.3396,"status":"passed"},"step":{"line":10,"prefix":"*","index":0,"text":"header Content-Type = \"application\/json\""}},{"result":{"nanos":348900,"startTime":1732629556124,"endTime":1732629556124,"millis":0.3489,"status":"passed"},"step":{"line":11,"prefix":"*","index":1,"text":"path \"\/api\/users?page=2\""}},{"result":{"nanos":122773300,"startTime":1732629556124,"endTime":1732629556247,"millis":122.7733,"status":"passed"},"step":{"line":12,"prefix":"*","index":2,"text":"method get"},"stepLog":"20:59:16.124 request:\n1 > GET https:\/\/reqres.in\/api\/users%3Fpage=2\n1 > Content-Type: application\/json\n1 > Host: reqres.in\n1 > Connection: Keep-Alive\n1 > User-Agent: Apache-HttpClient\/4.5.14 (Java\/17.0.12)\n1 > Accept-Encoding: gzip,deflate\n\n\n20:59:16.237 response time in milliseconds: 113\n1 < 200\n1 < Date: Tue, 26 Nov 2024 13:59:15 GMT\n1 < Content-Type: application\/json; charset=utf-8\n1 < Transfer-Encoding: chunked\n1 < Connection: keep-alive\n1 < Report-To: {\"group\":\"heroku-nel\",\"max_age\":3600,\"endpoints\":[{\"url\":\"https:\/\/nel.heroku.com\/reports?ts=1732629322&sid=c4c9725f-1ab0-44d8-820f-430df2718e11&s=EdC4QrUyEf3YUxPkdndQ7NCP8MFv2xE%2FNAZucT7k3KY%3D\"}]}\n1 < Reporting-Endpoints: heroku-nel=https:\/\/nel.heroku.com\/reports?ts=1732629322&sid=c4c9725f-1ab0-44d8-820f-430df2718e11&s=EdC4QrUyEf3YUxPkdndQ7NCP8MFv2xE%2FNAZucT7k3KY%3D\n1 < Nel: {\"report_to\":\"heroku-nel\",\"max_age\":3600,\"success_fraction\":0.005,\"failure_fraction\":0.05,\"response_headers\":[\"Via\"]}\n1 < X-Powered-By: Express\n1 < Access-Control-Allow-Origin: *\n1 < Etag: W\/\"2fb-zJ\/iiAzm4zf7SruyfEtNo0xEDoY\"\n1 < Via: 1.1 vegur\n1 < Cache-Control: max-age=14400\n1 < CF-Cache-Status: HIT\n1 < Age: 233\n1 < Vary: Accept-Encoding\n1 < Server: cloudflare\n1 < CF-RAY: 8e8a65e148075de6-HKG\n1 < server-timing: cfL4;desc=\"?proto=TCP&rtt=33013&sent=3&recv=6&lost=0&retrans=0&sent_bytes=219&recv_bytes=1052&delivery_rate=46186&cwnd=250&unsent_bytes=0&cid=9426cb88589b8bfa&ts=53&x=0\"\n{\"page\":1,\"per_page\":6,\"total\":12,\"total_pages\":2,\"data\":[{\"id\":1,\"name\":\"cerulean\",\"year\":2000,\"color\":\"#98B2D1\",\"pantone_value\":\"15-4020\"},{\"id\":2,\"name\":\"fuchsia rose\",\"year\":2001,\"color\":\"#C74375\",\"pantone_value\":\"17-2031\"},{\"id\":3,\"name\":\"true red\",\"year\":2002,\"color\":\"#BF1932\",\"pantone_value\":\"19-1664\"},{\"id\":4,\"name\":\"aqua sky\",\"year\":2003,\"color\":\"#7BC4C4\",\"pantone_value\":\"14-4811\"},{\"id\":5,\"name\":\"tigerlily\",\"year\":2004,\"color\":\"#E2583E\",\"pantone_value\":\"17-1456\"},{\"id\":6,\"name\":\"blue turquoise\",\"year\":2005,\"color\":\"#53B0AE\",\"pantone_value\":\"15-5217\"}],\"support\":{\"url\":\"https:\/\/contentcaddy.io?utm_source=reqres&utm_medium=json&utm_campaign=referral\",\"text\":\"Tired of writing endless social media content? Let Content Caddy generate it for you.\"}}\n\n"},{"result":{"nanos":5100,"startTime":1732629556253,"endTime":1732629556253,"millis":0.0051,"status":"passed"},"step":{"line":13,"prefix":"*","index":3,"text":"status 200"}},{"result":{"nanos":3508400,"errorMessage":"match failed: EQUALS\n  $ | not equal | match failed for name: 'page' (MAP:MAP)\n  {\"page\":1,\"per_page\":6,\"total\":12,\"total_pages\":2,\"data\":[{\"id\":1,\"name\":\"cerulean\",\"year\":2000,\"color\":\"#98B2D1\",\"pantone_value\":\"15-4020\"},{\"id\":2,\"name\":\"fuchsia rose\",\"year\":2001,\"color\":\"#C74375\",\"pantone_value\":\"17-2031\"},{\"id\":3,\"name\":\"true red\",\"year\":2002,\"color\":\"#BF1932\",\"pantone_value\":\"19-1664\"},{\"id\":4,\"name\":\"aqua sky\",\"year\":2003,\"color\":\"#7BC4C4\",\"pantone_value\":\"14-4811\"},{\"id\":5,\"name\":\"tigerlily\",\"year\":2004,\"color\":\"#E2583E\",\"pantone_value\":\"17-1456\"},{\"id\":6,\"name\":\"blue turquoise\",\"year\":2005,\"color\":\"#53B0AE\",\"pantone_value\":\"15-5217\"}],\"support\":{\"url\":\"https:\/\/contentcaddy.io?utm_source=reqres&utm_medium=json&utm_campaign=referral\",\"text\":\"Tired of writing endless social media content? Let Content Caddy generate it for you.\"}}\n  {\"page\":2,\"per_page\":6,\"total\":12,\"total_pages\":2,\"data\":[{\"id\":7,\"email\":\"michael.lawson@reqres.in\",\"first_name\":\"Michael\",\"last_name\":\"Lawson\",\"avatar\":\"https:\/\/reqres.in\/img\/faces\/7-image.jpg\"},{\"id\":8,\"email\":\"lindsay.ferguson@reqres.in\",\"first_name\":\"Lindsay\",\"last_name\":\"Ferguson\",\"avatar\":\"https:\/\/reqres.in\/img\/faces\/8-image.jpg\"},{\"id\":9,\"email\":\"tobias.funke@reqres.in\",\"first_name\":\"Tobias\",\"last_name\":\"Funke\",\"avatar\":\"https:\/\/reqres.in\/img\/faces\/9-image.jpg\"},{\"id\":10,\"email\":\"byron.fields@reqres.in\",\"first_name\":\"Byron\",\"last_name\":\"Fields\",\"avatar\":\"https:\/\/reqres.in\/img\/faces\/10-image.jpg\"},{\"id\":11,\"email\":\"george.edwards@reqres.in\",\"first_name\":\"George\",\"last_name\":\"Edwards\",\"avatar\":\"https:\/\/reqres.in\/img\/faces\/11-image.jpg\"},{\"id\":12,\"email\":\"rachel.howell@reqres.in\",\"first_name\":\"Rachel\",\"last_name\":\"Howell\",\"avatar\":\"https:\/\/reqres.in\/img\/faces\/12-image.jpg\"}],\"support\":{\"url\":\"https:\/\/contentcaddy.io?utm_source=reqres&utm_medium=json&utm_campaign=referral\",\"text\":\"Tired of writing endless social media content? Let Content Caddy generate it for you.\"}}\n\n    $.page | not equal (NUMBER:NUMBER)\n    1\n    2\n\nclasspath:api\/features\/reqres.feature:14","startTime":1732629556253,"endTime":1732629556257,"millis":3.5084,"status":"failed"},"step":{"line":14,"prefix":"*","index":4,"text":"match response == response_body.responePage2"},"stepLog":"20:59:16.253 classpath:api\/features\/reqres.feature:14\n* match response == response_body.responePage2\nmatch failed: EQUALS\n  $ | not equal | match failed for name: 'page' (MAP:MAP)\n  {\"page\":1,\"per_page\":6,\"total\":12,\"total_pages\":2,\"data\":[{\"id\":1,\"name\":\"cerulean\",\"year\":2000,\"color\":\"#98B2D1\",\"pantone_value\":\"15-4020\"},{\"id\":2,\"name\":\"fuchsia rose\",\"year\":2001,\"color\":\"#C74375\",\"pantone_value\":\"17-2031\"},{\"id\":3,\"name\":\"true red\",\"year\":2002,\"color\":\"#BF1932\",\"pantone_value\":\"19-1664\"},{\"id\":4,\"name\":\"aqua sky\",\"year\":2003,\"color\":\"#7BC4C4\",\"pantone_value\":\"14-4811\"},{\"id\":5,\"name\":\"tigerlily\",\"year\":2004,\"color\":\"#E2583E\",\"pantone_value\":\"17-1456\"},{\"id\":6,\"name\":\"blue turquoise\",\"year\":2005,\"color\":\"#53B0AE\",\"pantone_value\":\"15-5217\"}],\"support\":{\"url\":\"https:\/\/contentcaddy.io?utm_source=reqres&utm_medium=json&utm_campaign=referral\",\"text\":\"Tired of writing endless social media content? Let Content Caddy generate it for you.\"}}\n  {\"page\":2,\"per_page\":6,\"total\":12,\"total_pages\":2,\"data\":[{\"id\":7,\"email\":\"michael.lawson@reqres.in\",\"first_name\":\"Michael\",\"last_name\":\"Lawson\",\"avatar\":\"https:\/\/reqres.in\/img\/faces\/7-image.jpg\"},{\"id\":8,\"email\":\"lindsay.ferguson@reqres.in\",\"first_name\":\"Lindsay\",\"last_name\":\"Ferguson\",\"avatar\":\"https:\/\/reqres.in\/img\/faces\/8-image.jpg\"},{\"id\":9,\"email\":\"tobias.funke@reqres.in\",\"first_name\":\"Tobias\",\"last_name\":\"Funke\",\"avatar\":\"https:\/\/reqres.in\/img\/faces\/9-image.jpg\"},{\"id\":10,\"email\":\"byron.fields@reqres.in\",\"first_name\":\"Byron\",\"last_name\":\"Fields\",\"avatar\":\"https:\/\/reqres.in\/img\/faces\/10-image.jpg\"},{\"id\":11,\"email\":\"george.edwards@reqres.in\",\"first_name\":\"George\",\"last_name\":\"Edwards\",\"avatar\":\"https:\/\/reqres.in\/img\/faces\/11-image.jpg\"},{\"id\":12,\"email\":\"rachel.howell@reqres.in\",\"first_name\":\"Rachel\",\"last_name\":\"Howell\",\"avatar\":\"https:\/\/reqres.in\/img\/faces\/12-image.jpg\"}],\"support\":{\"url\":\"https:\/\/contentcaddy.io?utm_source=reqres&utm_medium=json&utm_campaign=referral\",\"text\":\"Tired of writing endless social media content? Let Content Caddy generate it for you.\"}}\n\n    $.page | not equal (NUMBER:NUMBER)\n    1\n    2\n\nclasspath:api\/features\/reqres.feature:14\n"}],"line":19,"description":"","durationMillis":129.1022,"failed":true,"error":"match failed: EQUALS\n  $ | not equal | match failed for name: 'page' (MAP:MAP)\n  {\"page\":1,\"per_page\":6,\"total\":12,\"total_pages\":2,\"data\":[{\"id\":1,\"name\":\"cerulean\",\"year\":2000,\"color\":\"#98B2D1\",\"pantone_value\":\"15-4020\"},{\"id\":2,\"name\":\"fuchsia rose\",\"year\":2001,\"color\":\"#C74375\",\"pantone_value\":\"17-2031\"},{\"id\":3,\"name\":\"true red\",\"year\":2002,\"color\":\"#BF1932\",\"pantone_value\":\"19-1664\"},{\"id\":4,\"name\":\"aqua sky\",\"year\":2003,\"color\":\"#7BC4C4\",\"pantone_value\":\"14-4811\"},{\"id\":5,\"name\":\"tigerlily\",\"year\":2004,\"color\":\"#E2583E\",\"pantone_value\":\"17-1456\"},{\"id\":6,\"name\":\"blue turquoise\",\"year\":2005,\"color\":\"#53B0AE\",\"pantone_value\":\"15-5217\"}],\"support\":{\"url\":\"https:\/\/contentcaddy.io?utm_source=reqres&utm_medium=json&utm_campaign=referral\",\"text\":\"Tired of writing endless social media content? Let Content Caddy generate it for you.\"}}\n  {\"page\":2,\"per_page\":6,\"total\":12,\"total_pages\":2,\"data\":[{\"id\":7,\"email\":\"michael.lawson@reqres.in\",\"first_name\":\"Michael\",\"last_name\":\"Lawson\",\"avatar\":\"https:\/\/reqres.in\/img\/faces\/7-image.jpg\"},{\"id\":8,\"email\":\"lindsay.ferguson@reqres.in\",\"first_name\":\"Lindsay\",\"last_name\":\"Ferguson\",\"avatar\":\"https:\/\/reqres.in\/img\/faces\/8-image.jpg\"},{\"id\":9,\"email\":\"tobias.funke@reqres.in\",\"first_name\":\"Tobias\",\"last_name\":\"Funke\",\"avatar\":\"https:\/\/reqres.in\/img\/faces\/9-image.jpg\"},{\"id\":10,\"email\":\"byron.fields@reqres.in\",\"first_name\":\"Byron\",\"last_name\":\"Fields\",\"avatar\":\"https:\/\/reqres.in\/img\/faces\/10-image.jpg\"},{\"id\":11,\"email\":\"george.edwards@reqres.in\",\"first_name\":\"George\",\"last_name\":\"Edwards\",\"avatar\":\"https:\/\/reqres.in\/img\/faces\/11-image.jpg\"},{\"id\":12,\"email\":\"rachel.howell@reqres.in\",\"first_name\":\"Rachel\",\"last_name\":\"Howell\",\"avatar\":\"https:\/\/reqres.in\/img\/faces\/12-image.jpg\"}],\"support\":{\"url\":\"https:\/\/contentcaddy.io?utm_source=reqres&utm_medium=json&utm_campaign=referral\",\"text\":\"Tired of writing endless social media content? Let Content Caddy generate it for you.\"}}\n\n    $.page | not equal (NUMBER:NUMBER)\n    1\n    2\n\nclasspath:api\/features\/reqres.feature:14","tags":["TC_01"],"executorName":"main","name":"","startTime":1732629556117,"refId":"[1.2:19]","endTime":1732629556253,"exampleData":{"pageNumber":"2"},"exampleIndex":1}],"callDepth":0,"name":"","description":"","resultDate":"2024-11-26 08:59:16 CH","durationMillis":586.0734,"passedCount":1}